# print of r_midi_frames() correct

    Code
      mfr
    Output
      $mf
      <miditapyr.midi_frame.MidiFrames>
      
      $dfm
      # A tibble: 268 x 18
         i_track meta  type       name    time  note velocity channel  tempo numerator
           <dbl> <lgl> <chr>      <list> <dbl> <dbl>    <dbl>   <dbl>  <dbl>     <dbl>
       1       0 TRUE  track_name <chr ~     0   NaN      NaN     NaN    NaN       NaN
       2       0 FALSE note_on    <dbl ~     0    43       72       9    NaN       NaN
       3       0 FALSE note_on    <dbl ~     0    39       64       9    NaN       NaN
       4       0 FALSE note_on    <dbl ~     0    36      101       9    NaN       NaN
       5       0 TRUE  set_tempo  <dbl ~     0   NaN      NaN     NaN 666666       NaN
       6       0 TRUE  time_sign~ <dbl ~     0   NaN      NaN     NaN    NaN         4
       7       0 FALSE note_off   <dbl ~   240    43       72       9    NaN       NaN
       8       0 FALSE note_off   <dbl ~     0    39       64       9    NaN       NaN
       9       0 FALSE note_off   <dbl ~     0    36      101       9    NaN       NaN
      10       0 FALSE note_on    <dbl ~   240    42      101       9    NaN       NaN
      # ... with 258 more rows, and 8 more variables: denominator <dbl>,
      #   clocks_per_click <dbl>, notated_32nd_notes_per_beat <dbl>, ticks <dbl>,
      #   t <dbl>, m <dbl>, b <dbl>, i_note <int>
…
      $df_not_notes
       [1] i_track  meta     type     time     note     velocity channel  ticks   
       [9] t        m        b        i_note  
      <0 rows> (or 0-length row.names)
      
      $df_notes_wide
      # A tibble: 130 x 17
         i_track meta   note channel i_note time_note_on time_note_off
           <dbl> <lgl> <dbl>   <dbl>  <int>        <dbl>         <dbl>
       1       0 FALSE    43       9      1            0           240
       2       0 FALSE    39       9      1            0             0
       3       0 FALSE    36       9      1            0             0
       4       0 FALSE    42       9      1          240             0
       5       0 FALSE    38       9      1            0             0
       6       0 FALSE    43       9      2          240           240
       7       0 FALSE    36       9      2            0           240
       8       0 FALSE    43       9      3          240           240
       9       0 FALSE    42       9      2            0             0
      10       0 FALSE    43       9      4          240           240
      # ... with 120 more rows, and 10 more variables: velocity_note_on <dbl>,
      #   velocity_note_off <dbl>, ticks_note_on <dbl>, ticks_note_off <dbl>,
      #   t_note_on <dbl>, t_note_off <dbl>, m_note_on <dbl>, m_note_off <dbl>,
      #   b_note_on <dbl>, b_note_off <dbl>
      
      $df_notes_long
      # A tibble: 260 x 12
         i_track channel  note i_note type      time velocity ticks     t     m     b
           <dbl>   <dbl> <dbl>  <int> <chr>    <dbl>    <dbl> <dbl> <dbl> <dbl> <dbl>
       1       0       9    43      1 note_on      0       72     0 0      0        0
       2       0       9    43      1 note_off   240       72   240 0.167  0.25     1
       3       0       9    39      1 note_on      0       64     0 0      0        0
       4       0       9    39      1 note_off     0       64   240 0.167  0.25     1
       5       0       9    36      1 note_on      0      101     0 0      0        0
       6       0       9    36      1 note_off     0      101   240 0.167  0.25     1
       7       0       9    42      1 note_on    240      101   480 0.333  0.5      2
       8       0       9    42      1 note_off     0      101   720 0.500  0.75     3
       9       0       9    38      1 note_on      0      101   480 0.333  0.5      2
      10       0       9    38      1 note_off     0      101   720 0.500  0.75     3
      # ... with 250 more rows, and 1 more variable: meta <lgl>
      
      $df_long_mod
      # A tibble: 268 x 13
         i_track channel  note type        time velocity meta  name    tempo numerator
           <dbl>   <dbl> <dbl> <chr>      <dbl>    <dbl> <lgl> <list>  <dbl>     <dbl>
       1       0       9    43 note_on        0       72 FALSE <NULL>     NA        NA
       2       0       9    39 note_on        0       64 FALSE <NULL>     NA        NA
       3       0       9    36 note_on        0      101 FALSE <NULL>     NA        NA
       4       0      NA    NA track_name     0       NA TRUE  <chr ~    NaN       NaN
       5       0      NA    NA set_tempo      0       NA TRUE  <dbl ~ 666666       NaN
       6       0      NA    NA time_sign~     0       NA TRUE  <dbl ~    NaN         4
       7       0       9    43 note_off     240       72 FALSE <NULL>     NA        NA
       8       0       9    39 note_off       0       64 FALSE <NULL>     NA        NA
       9       0       9    36 note_off       0      101 FALSE <NULL>     NA        NA
      10       0       9    42 note_on      240      101 FALSE <NULL>     NA        NA
      # ... with 258 more rows, and 3 more variables: denominator <dbl>,
      #   clocks_per_click <dbl>, notated_32nd_notes_per_beat <dbl>
…
