# MidiFramer seems to work

    Code
      c("midi_frame_mod", "df_notes_wide", "df_not_notes", "df_meta", "df_notes_long",
        "dfm", "mf") %>% purrr::set_names() %>% purrr::map(~ mfr6[[.x]])
    Output
      $midi_frame_mod
      # A tibble: 268 x 13
         i_track channel  note type  velocity meta  name   tempo numerator denominator
           <dbl>   <dbl> <dbl> <chr>    <dbl> <lgl> <chr>  <dbl>     <dbl>       <dbl>
       1       0       9    43 note~       72 FALSE <NA>      NA        NA          NA
       2       0       9    39 note~       64 FALSE <NA>      NA        NA          NA
       3       0       9    36 note~      101 FALSE <NA>      NA        NA          NA
       4       0      NA    NA trac~       NA TRUE  drum~    NaN       NaN         NaN
       5       0      NA    NA set_~       NA TRUE  <NA>  666666       NaN         NaN
       6       0      NA    NA time~       NA TRUE  <NA>     NaN         4           4
       7       0       9    43 note~       72 FALSE <NA>      NA        NA          NA
       8       0       9    39 note~       64 FALSE <NA>      NA        NA          NA
       9       0       9    36 note~      101 FALSE <NA>      NA        NA          NA
      10       0       9    42 note~      101 FALSE <NA>      NA        NA          NA
      # i 258 more rows
      # i 3 more variables: clocks_per_click <dbl>,
      #   notated_32nd_notes_per_beat <dbl>, time <dbl>
      
      $df_notes_wide
      # A tibble: 130 x 11
         i_track meta   note channel i_note velocity_note_on velocity_note_off
           <dbl> <lgl> <dbl>   <dbl>  <int>            <dbl>             <dbl>
       1       0 FALSE    43       9      1               72                72
       2       0 FALSE    39       9      1               64                64
       3       0 FALSE    36       9      1              101               101
       4       0 FALSE    42       9      1              101               101
       5       0 FALSE    38       9      1              101               101
       6       0 FALSE    43       9      2               64                64
       7       0 FALSE    36       9      2              101               101
       8       0 FALSE    43       9      3               60                60
       9       0 FALSE    42       9      2              101               101
      10       0 FALSE    43       9      4               60                60
      # i 120 more rows
      # i 4 more variables: ticks_note_on <dbl>, ticks_note_off <dbl>,
      #   b_note_on <dbl>, b_note_off <dbl>
…
      $df_notes_long
      # A tibble: 260 x 9
         i_track channel  note i_note type     velocity ticks     b meta 
           <dbl>   <dbl> <dbl>  <int> <chr>       <dbl> <dbl> <dbl> <lgl>
       1       0       9    43      1 note_on        72     0     0 FALSE
       2       0       9    43      1 note_off       72   240     1 FALSE
       3       0       9    39      1 note_on        64     0     0 FALSE
       4       0       9    39      1 note_off       64   240     1 FALSE
       5       0       9    36      1 note_on       101     0     0 FALSE
       6       0       9    36      1 note_off      101   240     1 FALSE
       7       0       9    42      1 note_on       101   480     2 FALSE
       8       0       9    42      1 note_off      101   720     3 FALSE
       9       0       9    38      1 note_on       101   480     2 FALSE
      10       0       9    38      1 note_off      101   720     3 FALSE
      # i 250 more rows
      
      $dfm
      # A tibble: 268 x 15
         i_track meta  type     name   note velocity channel ticks     b i_note  tempo
           <dbl> <lgl> <chr>    <chr> <dbl>    <dbl>   <dbl> <dbl> <dbl>  <int>  <dbl>
       1       0 TRUE  track_n~ drum~   NaN      NaN     NaN     0     0      0    NaN
       2       0 FALSE note_on  <NA>     43       72       9     0     0      1    NaN
       3       0 FALSE note_on  <NA>     39       64       9     0     0      1    NaN
       4       0 FALSE note_on  <NA>     36      101       9     0     0      1    NaN
       5       0 TRUE  set_tem~ <NA>    NaN      NaN     NaN     0     0      0 666666
       6       0 TRUE  time_si~ <NA>    NaN      NaN     NaN     0     0      0    NaN
       7       0 FALSE note_off <NA>     43       72       9   240     1      1    NaN
       8       0 FALSE note_off <NA>     39       64       9   240     1      1    NaN
       9       0 FALSE note_off <NA>     36      101       9   240     1      1    NaN
      10       0 FALSE note_on  <NA>     42      101       9   480     2      1    NaN
      # i 258 more rows
      # i 4 more variables: numerator <dbl>, denominator <dbl>,
      #   clocks_per_click <dbl>, notated_32nd_notes_per_beat <dbl>
…
