Midi manipulation with pyramidi • pyramidi
…
mod <- function(dfn, seed) {
  n_notes <- sum(!is.na(dfn$note))
  dfn %>% mutate(note = ifelse(
    !is.na(note),
    sample(60:71, n_notes, TRUE),
    note
  ))
}

We could modify the notes in wide format like this:

mod(mfr$df_notes_wide)
#> # A tibble: 130 × 11
#>    i_track meta   note channel i_note velocity_note_on velocity_note_off
#>      <dbl> <lgl> <int>   <dbl>  <dbl>            <dbl>             <dbl>
#>  1       0 FALSE    67       9      1               72                72
#>  2       0 FALSE    61       9      1               64                64
#>  3       0 FALSE    67       9      1              101               101
#>  4       0 FALSE    71       9      1              101               101
#>  5       0 FALSE    67       9      1              101               101
#>  6       0 FALSE    62       9      2               64                64
#>  7       0 FALSE    61       9      2              101               101
#>  8       0 FALSE    68       9      3               60                60
#>  9       0 FALSE    71       9      2              101               101
#> 10       0 FALSE    60       9      4               60                60
#> # ℹ 120 more rows
#> # ℹ 4 more variables: ticks_note_on <dbl>, ticks_note_off <dbl>,
#> #   b_note_on <dbl>, b_note_off <dbl>
…
