Using the tuneR package • pyramidi
…
pyramidi

With pyramidi data can be loaded into a unnested dataframe like
this:

mid_file_str <- system.file("extdata", "test_midi_file.mid", package = "pyramidi")
mido_mid_file <- mido$MidiFile(mid_file_str)
dfc <- miditapyr$frame_midi(mido_mid_file)
ticks_per_beat = mido_mid_file$ticks_per_beat
df <- dfc %>%
  miditapyr$unnest_midi() %>% 
  as_tibble()
df
#> # A tibble: 268 × 13
#>    i_track meta  type        name   time  note velocity channel  tempo numerator
#>      <dbl> <lgl> <chr>       <chr> <dbl> <dbl>    <dbl>   <dbl>  <dbl>     <dbl>
#>  1       0 TRUE  track_name  drum…     0   NaN      NaN     NaN    NaN       NaN
#>  2       0 FALSE note_on     NA        0    43       72       9    NaN       NaN
#>  3       0 FALSE note_on     NA        0    39       64       9    NaN       NaN
#>  4       0 FALSE note_on     NA        0    36      101       9    NaN       NaN
#>  5       0 TRUE  set_tempo   NA        0   NaN      NaN     NaN 666666       NaN
#>  6       0 TRUE  time_signa… NA        0   NaN      NaN     NaN    NaN         4
#>  7       0 FALSE note_off    NA      240    43       72       9    NaN       NaN
#>  8       0 FALSE note_off    NA        0    39       64       9    NaN       NaN
#>  9       0 FALSE note_off    NA        0    36      101       9    NaN       NaN
#> 10       0 FALSE note_on     NA      240    42      101       9    NaN       NaN
#> # ℹ 258 more rows
#> # ℹ 3 more variables: denominator <dbl>, clocks_per_click <dbl>,
#> #   notated_32nd_notes_per_beat <dbl>
…
