Read & write midi data via python and manipulate in R • pyramidi
…
df_notes %>% as_tibble()
#> # A tibble: 4,962 x 7
#>    type     name   time  note velocity channel i_track
#>    <chr>    <chr> <dbl> <dbl>    <dbl>   <dbl>   <dbl>
#>  1 note_on  nan       0    38      101       9       1
#>  2 note_on  nan       0    36      101       9       1
#>  3 note_off nan     240    38      101       9       1
#>  4 note_off nan       0    36      101       9       1
#>  5 note_on  nan    1200    38      101       9       1
#>  6 note_off nan     240    38      101       9       1
#>  7 note_on  nan     240    38      101       9       1
#>  8 note_on  nan       0    36      101       9       1
#>  9 note_off nan     240    38      101       9       1
#> 10 note_off nan       0    36      101       9       1
#> # … with 4,952 more rows

ticks_per_beat
#> [1] 960

Pivot note dataframe to wide

df_notes_wide <-  
  tab_measures(df_meta, df_notes, ticks_per_beat) %>%
  widen_events() %>%
  left_join(pyramidi::midi_defs)
#> Joining, by = "note"
df_notes_wide
#> # A tibble: 2,481 x 18
#>    i_track name  channel  note i_note m_note_on m_note_off b_note_on b_note_off
#>      <dbl> <chr>   <dbl> <dbl>  <int>     <dbl>      <dbl>     <dbl>      <dbl>
#>  1       1 nan         9    38      1       0         0.25        0          1 
#>  2       1 nan         9    36      1       0         0.25        0          1 
#>  3       1 nan         9    38      2       1.5       1.75        6          7.
#>  4       1 nan         9    38      3       2         2.25        8          9 
#>  5       1 nan         9    36      2       2         2.25        8          9 
#>  6       1 nan         9    38      4       3.5       3.75       14.        15 
#>  7       1 nan         9    38      5       4         4.25       16         17.
#>  8       1 nan         9    36      3       4         4.25       16         17.
#>  9       1 nan         9    38      6       5.5       5.75       22         23.
#> 10       1 nan         9    38      7       6         6.25       24         25 
#> # … with 2,471 more rows, and 9 more variables: t_note_on <dbl>,
#> #   t_note_off <dbl>, ticks_note_on <dbl>, ticks_note_off <dbl>,
#> #   time_note_on <dbl>, time_note_off <dbl>, velocity_note_on <dbl>,
#> #   velocity_note_off <dbl>, note_name <fct>
…
df_notes_out <- 
  df_notes_out %>% 
  group_by(i_track) %>% 
  mutate(time = ticks - lag(ticks) %>% {.[1] = 0; .}) %>% 
  ungroup()

df_notes_out
#> # A tibble: 4,962 x 12
#>    i_track name  channel  note i_note type      m     b     t ticks  time
#>      <dbl> <chr>   <dbl> <dbl>  <int> <chr> <dbl> <dbl> <dbl> <dbl> <dbl>
#>  1       1 nan         9    38      1 note…  0       0  0         0     0
#>  2       1 nan         9    36      1 note…  0       0  0         0     0
#>  3       1 nan         9    38      1 note…  0.25    1  0.136   240   240
#>  4       1 nan         9    36      1 note…  0.25    1  0.136   240     0
#>  5       1 nan         9    38      2 note…  1.5     6  0.818  1440  1200
#>  6       1 nan         9    38      2 note…  1.75    7. 0.955  1680   240
#>  7       1 nan         9    38      3 note…  2       8  1.09   1920   240
#>  8       1 nan         9    36      2 note…  2       8  1.09   1920     0
#>  9       1 nan         9    38      3 note…  2.25    9  1.23   2160   240
#> 10       1 nan         9    36      2 note…  2.25    9  1.23   2160     0
#> # … with 4,952 more rows, and 1 more variable: velocity <dbl>
…
