Using the tuneR package • pyramidi
…
Read midi in tidy format

pyramidi

With pyramidi data can be loaded into a tidy dataframe like this:

mid_file_str <- system.file("extdata", "test_midi_file.mid", package = "pyramidi")
mido_mid_file <- mido$MidiFile(mid_file_str)
dfc <- mt$midi_to_df(mido_mid_file)
ticks_per_beat = mido_mid_file$ticks_per_beat
df <- dfc %>%
  mt$tidy_df() %>% 
  as_tibble()
df
#> # A tibble: 268 x 13
#>    i_track meta  type  name   time  note velocity channel  tempo numerator
#>      <dbl> <lgl> <chr> <lis> <dbl> <dbl>    <dbl>   <dbl>  <dbl>     <dbl>
#>  1       0 TRUE  trac… <chr…     0   NaN      NaN     NaN    NaN       NaN
#>  2       0 FALSE note… <dbl…     0    43       72       9    NaN       NaN
#>  3       0 FALSE note… <dbl…     0    39       64       9    NaN       NaN
#>  4       0 FALSE note… <dbl…     0    36      101       9    NaN       NaN
#>  5       0 TRUE  set_… <dbl…     0   NaN      NaN     NaN 666666       NaN
#>  6       0 TRUE  time… <dbl…     0   NaN      NaN     NaN    NaN         4
#>  7       0 FALSE note… <dbl…   240    43       72       9    NaN       NaN
#>  8       0 FALSE note… <dbl…     0    39       64       9    NaN       NaN
#>  9       0 FALSE note… <dbl…     0    36      101       9    NaN       NaN
#> 10       0 FALSE note… <dbl…   240    42      101       9    NaN       NaN
#> # … with 258 more rows, and 3 more variables: denominator <dbl>,
#> #   clocks_per_click <dbl>, notated_32nd_notes_per_beat <dbl>
…
Pivot note dataframe to wide

df_not_notes <- 
  df_notes %>% 
  dplyr::filter(!stringr::str_detect(.data$type, "^note_o[nf]f?$")) 

df_notes_wide <-
  df_notes %>% 
  dplyr::filter(stringr::str_detect(.data$type, "^note_o[nf]f?$")) %>%
  # tab_measures(df_meta, df_notes, ticks_per_beat) %>%
  widen_events() %>%
  left_join(pyramidi::midi_defs)
#> Joining, by = "note"
df_notes_wide
#> # A tibble: 130 x 20
#>    channel  note parameterMetaSy… i_track meta  i_note track m_note_on
#>      <dbl> <dbl> <chr>              <int> <lgl>  <int> <chr>     <dbl>
#>  1       9    43 NA                     1 FALSE      1 drum…      0   
#>  2       9    39 NA                     1 FALSE      1 drum…      0   
#>  3       9    36 NA                     1 FALSE      1 drum…      0   
#>  4       9    42 NA                     1 FALSE      1 drum…      0.5 
#>  5       9    38 NA                     1 FALSE      1 drum…      0.5 
#>  6       9    43 NA                     1 FALSE      2 drum…      0.75
#>  7       9    36 NA                     1 FALSE      2 drum…      1   
#>  8       9    43 NA                     1 FALSE      3 drum…      1.5 
#>  9       9    42 NA                     1 FALSE      2 drum…      1.5 
#> 10       9    43 NA                     1 FALSE      4 drum…      2   
#> # … with 120 more rows, and 12 more variables: m_note_off <dbl>,
#> #   b_note_on <dbl>, b_note_off <dbl>, t_note_on <dbl>, t_note_off <dbl>,
#> #   ticks_note_on <dbl>, ticks_note_off <dbl>, time_note_on <dbl>,
#> #   time_note_off <dbl>, velocity_note_on <dbl>, velocity_note_off <dbl>,
#> #   note_name <fct>
…
df_notes_out
#> # A tibble: 268 x 20
#>    i_track channel  note i_note type      m     b     t ticks  time velocity
#>      <int>   <dbl> <dbl>  <int> <chr> <dbl> <dbl> <dbl> <dbl> <dbl>    <dbl>
#>  1       1       9    43      1 note…  0        0 0         0     0       72
#>  2       1       9    39      1 note…  0        0 0         0     0       64
#>  3       1       9    36      1 note…  0        0 0         0     0      101
#>  4       1      NA    NA      0 trac…  0        0 0         0     0       NA
#>  5       1      NA    NA      0 set_…  0        0 0         0     0       NA
#>  6       1      NA    NA      0 time…  0        0 0         0     0       NA
#>  7       1       9    43      1 note…  0.25     1 0.167   240   240       72
#>  8       1       9    39      1 note…  0.25     1 0.167   240     0       64
#>  9       1       9    36      1 note…  0.25     1 0.167   240     0      101
#> 10       1       9    42      1 note…  0.5      2 0.333   480   240      101
#> # … with 258 more rows, and 9 more variables: meta <lgl>,
#> #   parameterMetaSystem <chr>, tempo <dbl>, name <list>, numerator <dbl>,
#> #   denominator <dbl>, clocks_per_click <dbl>,
#> #   notated_32nd_notes_per_beat <dbl>, track <chr>

Write midi dataframe back to a midi file

dfc2 <-
  df_notes_out %>%
  # For midi export the new columns are removed:
  select(names(df)) %>%
  # When reticulate converts R dataframes to pandas, there are complications
  # with character columns containing missing values.
  # repair_reticulate_conversion = TRUE, repairs that in the miditapyr python
  # code:
  mt$compact_df(repair_reticulate_conversion = TRUE)
dfc2 %>% as_tibble()
#> # A tibble: 268 x 3
#>    i_track meta  msg             
#>      <int> <lgl> <list>          
#>  1       1 FALSE <named list [5]>
#>  2       1 FALSE <named list [5]>
#>  3       1 FALSE <named list [5]>
#>  4       1 TRUE  <named list [3]>
#>  5       1 TRUE  <named list [3]>
#>  6       1 TRUE  <named list [6]>
#>  7       1 FALSE <named list [5]>
#>  8       1 FALSE <named list [5]>
#>  9       1 FALSE <named list [5]>
#> 10       1 FALSE <named list [5]>
#> # … with 258 more rows
…
