Composing from R • pyramidi
…
For the moment, there is no proper constructor to generate an empty MidiFramer() object. Therefore, we just load our package midi file to have some scaffolding to put our notes in:

midi_file_string <- system.file("extdata", "test_midi_file.mid", package = "pyramidi")
mfr <- MidiFramer$new(midi_file_string)

We will compose our data by generating a dataframe as the one on the example midi file.

mfr$df_notes_wide

 Click here to show the format of the dataframe we need to have.  

# A tibble: 130 × 17
   i_track meta   note channel i_note time_note_on time_note_off
     <dbl> <lgl> <dbl>   <dbl>  <int>        <dbl>         <dbl>
 1       0 FALSE    43       9      1            0           240
 2       0 FALSE    39       9      1            0             0
 3       0 FALSE    36       9      1            0             0
 4       0 FALSE    42       9      1          240             0
 5       0 FALSE    38       9      1            0             0
 6       0 FALSE    43       9      2          240           240
 7       0 FALSE    36       9      2            0           240
 8       0 FALSE    43       9      3          240           240
 9       0 FALSE    42       9      2            0             0
10       0 FALSE    43       9      4          240           240
# … with 120 more rows, and 10 more variables: velocity_note_on <dbl>,
#   velocity_note_off <dbl>, ticks_note_on <dbl>, ticks_note_off <dbl>,
#   t_note_on <dbl>, t_note_off <dbl>, m_note_on <dbl>, m_note_off <dbl>,
#   b_note_on <dbl>, b_note_off <dbl>
…
frame them:

chords <- frame_chords(
  b = 1:n_beats - 1, 
  dur = 1,
  velocity = 70,
  note = chords_list
)

chords

 Show framed chords  

# A tibble: 64 × 8
   i_track meta   note channel velocity_note_on velocity_note_off b_note_on
     <dbl> <lgl> <dbl>   <dbl>            <dbl>             <dbl>     <dbl>
 1       0 FALSE    60       0               70                 0         0
 2       0 FALSE    64       0               70                 0         0
 3       0 FALSE    67       0               70                 0         0
 4       0 FALSE    72       0               70                 0         0
 5       0 FALSE    60       0               70                 0         1
 6       0 FALSE    64       0               70                 0         1
 7       0 FALSE    67       0               70                 0         1
 8       0 FALSE    72       0               70                 0         1
 9       0 FALSE    60       0               70                 0         2
10       0 FALSE    64       0               70                 0         2
# … with 54 more rows, and 1 more variable: b_note_off <dbl>
…
}
arp <- arpeggiate(
  b = 1:n_beats - 1, 
  velocity = 90,
  chords_list = chords_list
)

arp

 Show arpeggio function output  

# A tibble: 64 × 8
   i_track meta   note channel velocity_note_on velocity_note_off b_note_on
     <dbl> <lgl> <dbl>   <dbl>            <dbl>             <dbl>     <dbl>
 1       0 FALSE    60       0               90                 0      0   
 2       0 FALSE    64       0               90                 0      0.25
 3       0 FALSE    67       0               90                 0      0.5 
 4       0 FALSE    72       0               90                 0      0.75
 5       0 FALSE    60       0               90                 0      1   
 6       0 FALSE    64       0               90                 0      1.25
 7       0 FALSE    67       0               90                 0      1.5 
 8       0 FALSE    72       0               90                 0      1.75
 9       0 FALSE    60       0               90                 0      2   
10       0 FALSE    64       0               90                 0      2.25
# … with 54 more rows, and 1 more variable: b_note_off <dbl>
…
