Usage of pyramidi functions • pyramidi
…
Except the name column this seems to be the same as

dfc %>% unnest_wider(msg)
#> # A tibble: 268 × 13
#>    i_track meta  type        name   time  note velocity channel  tempo numerator
#>      <dbl> <lgl> <chr>       <chr> <int> <int>    <int>   <int>  <int>     <int>
#>  1       0 TRUE  track_name  drum…     0    NA       NA      NA     NA        NA
#>  2       0 FALSE note_on     NA        0    43       72       9     NA        NA
#>  3       0 FALSE note_on     NA        0    39       64       9     NA        NA
#>  4       0 FALSE note_on     NA        0    36      101       9     NA        NA
#>  5       0 TRUE  set_tempo   NA        0    NA       NA      NA 666666        NA
#>  6       0 TRUE  time_signa… NA        0    NA       NA      NA     NA         4
#>  7       0 FALSE note_off    NA      240    43       72       9     NA        NA
#>  8       0 FALSE note_off    NA        0    39       64       9     NA        NA
#>  9       0 FALSE note_off    NA        0    36      101       9     NA        NA
#> 10       0 FALSE note_on     NA      240    42      101       9     NA        NA
#> # ℹ 258 more rows
#> # ℹ 3 more variables: denominator <int>, clocks_per_click <int>,
#> #   notated_32nd_notes_per_beat <int>
…
In the midi format, time is treated as relative increments between
events (measured in ticks). In order to derive the total time passed,
you can use the function tab_measures():

dfm <- tab_measures(df, ticks_per_beat, c("m", "b")) %>%
  # create a variable `track` with the track name (in order to have it in the plot below)
  mutate(track = ifelse(purrr::map_chr(name, typeof) != "character", 
                        list(NA_character_), 
                        name)) %>%
  unnest(cols = track) %>% 
  fill(track)

dfm
#> # A tibble: 268 × 17
#>    i_track meta  type      name   note velocity channel ticks     m     b i_note
#>      <dbl> <lgl> <chr>     <chr> <dbl>    <dbl>   <dbl> <dbl> <dbl> <dbl>  <int>
#>  1       0 TRUE  track_na… drum…   NaN      NaN     NaN     0  0        0      0
#>  2       0 FALSE note_on   NA       43       72       9     0  0        0      1
#>  3       0 FALSE note_on   NA       39       64       9     0  0        0      1
#>  4       0 FALSE note_on   NA       36      101       9     0  0        0      1
#>  5       0 TRUE  set_tempo NA      NaN      NaN     NaN     0  0        0      0
#>  6       0 TRUE  time_sig… NA      NaN      NaN     NaN     0  0        0      0
#>  7       0 FALSE note_off  NA       43       72       9   240  0.25     1      1
#>  8       0 FALSE note_off  NA       39       64       9   240  0.25     1      1
#>  9       0 FALSE note_off  NA       36      101       9   240  0.25     1      1
#> 10       0 FALSE note_on   NA       42      101       9   480  0.5      2      1
#> # ℹ 258 more rows
#> # ℹ 6 more variables: tempo <dbl>, numerator <dbl>, denominator <dbl>,
#> #   clocks_per_click <dbl>, notated_32nd_notes_per_beat <dbl>, track <chr>
…
df_notes %>% as_tibble()
#> # A tibble: 260 × 11
#>    i_track meta  type      note velocity channel ticks     m     b i_note track 
#>      <dbl> <lgl> <chr>    <dbl>    <dbl>   <dbl> <dbl> <dbl> <dbl>  <int> <chr> 
#>  1       0 FALSE note_on     43       72       9     0  0        0      1 drum-…
#>  2       0 FALSE note_on     39       64       9     0  0        0      1 drum-…
#>  3       0 FALSE note_on     36      101       9     0  0        0      1 drum-…
#>  4       0 FALSE note_off    43       72       9   240  0.25     1      1 drum-…
#>  5       0 FALSE note_off    39       64       9   240  0.25     1      1 drum-…
#>  6       0 FALSE note_off    36      101       9   240  0.25     1      1 drum-…
#>  7       0 FALSE note_on     42      101       9   480  0.5      2      1 drum-…
#>  8       0 FALSE note_on     38      101       9   480  0.5      2      1 drum-…
#>  9       0 FALSE note_on     43       64       9   720  0.75     3      2 drum-…
#> 10       0 FALSE note_off    42      101       9   720  0.75     3      1 drum-…
#> # ℹ 250 more rows
…
df_not_notes <- 
  df_notes %>% 
  dplyr::filter(!stringr::str_detect(type, "^note_o[nf]f?$")) 

df_notes_wide <-
  df_notes %>% 
  dplyr::filter(stringr::str_detect(type, "^note_o[nf]f?$")) %>%
  # tab_measures(df_meta, df_notes, ticks_per_beat) %>%
  pivot_wide_notes() %>%
  left_join(pyramidi::midi_defs)
#> Joining with `by = join_by(note)`
df_notes_wide
#> # A tibble: 130 × 15
#>    i_track meta   note channel i_note track   velocity_note_on velocity_note_off
#>      <dbl> <lgl> <dbl>   <dbl>  <int> <chr>              <dbl>             <dbl>
#>  1       0 FALSE    43       9      1 drum-t…               72                72
#>  2       0 FALSE    39       9      1 drum-t…               64                64
#>  3       0 FALSE    36       9      1 drum-t…              101               101
#>  4       0 FALSE    42       9      1 drum-t…              101               101
#>  5       0 FALSE    38       9      1 drum-t…              101               101
#>  6       0 FALSE    43       9      2 drum-t…               64                64
#>  7       0 FALSE    36       9      2 drum-t…              101               101
#>  8       0 FALSE    43       9      3 drum-t…               60                60
#>  9       0 FALSE    42       9      2 drum-t…              101               101
#> 10       0 FALSE    43       9      4 drum-t…               60                60
#> # ℹ 120 more rows
#> # ℹ 7 more variables: ticks_note_on <dbl>, ticks_note_off <dbl>,
#> #   m_note_on <dbl>, m_note_off <dbl>, b_note_on <dbl>, b_note_off <dbl>,
#> #   note_name <fct>
…
Let’s compare the modified value to the original one:

df_notes_wide %>% 
  select(b_note_on, velocity_note_on) %>% 
  bind_cols(
    new = df_notes_wide_mod$velocity_note_on
  )
#> # A tibble: 130 × 3
#>    b_note_on velocity_note_on   new
#>        <dbl>            <dbl> <dbl>
#>  1         0               72 127  
#>  2         0               64 127  
#>  3         0              101 127  
#>  4         2              101  50.5
#>  5         2              101  50.5
#>  6         3               64  32  
#>  7         4              101 127  
#>  8         6               60  30  
#>  9         6              101  50.5
#> 10         8               60 127  
#> # ℹ 120 more rows
…
Pivot note data frame back to long format

We can transform the wide midi data back to the long format:

df_notes_long <- pivot_long_notes(df_notes_wide)

Join non note events

We can now add the non note events:

df_midi_out <- merge_midi_frames(df_meta, df_notes_long, df_not_notes)

df_midi_out
#> # A tibble: 268 × 14
#>    i_track channel  note type  velocity meta  name   tempo numerator denominator
#>      <dbl>   <dbl> <dbl> <chr>    <dbl> <lgl> <chr>  <dbl>     <dbl>       <dbl>
#>  1       0       9    43 note…       72 FALSE NA        NA        NA          NA
#>  2       0       9    39 note…       64 FALSE NA        NA        NA          NA
#>  3       0       9    36 note…      101 FALSE NA        NA        NA          NA
#>  4       0      NA    NA trac…       NA TRUE  drum…    NaN       NaN         NaN
#>  5       0      NA    NA set_…       NA TRUE  NA    666666       NaN         NaN
#>  6       0      NA    NA time…       NA TRUE  NA       NaN         4           4
#>  7       0       9    43 note…       72 FALSE NA        NA        NA          NA
#>  8       0       9    39 note…       64 FALSE NA        NA        NA          NA
#>  9       0       9    36 note…      101 FALSE NA        NA        NA          NA
#> 10       0       9    42 note…      101 FALSE NA        NA        NA          NA
#> # ℹ 258 more rows
#> # ℹ 4 more variables: clocks_per_click <dbl>,
#> #   notated_32nd_notes_per_beat <dbl>, track <chr>, time <dbl>
…
Write midi dataframe back to a midi file

Now we can transform the data back to a dataframe of the same format
as the one we got with miditapyr$frame_midi():

dfc2 <-
  df_midi_out %>%
  # When reticulate converts R dataframes to pandas, there are complications
  # with character columns containing missing values.
  # repair_reticulate_conversion = TRUE, repairs that in the miditapyr python
  # code:
  miditapyr$nest_midi(repair_reticulate_conversion = TRUE)
as_tibble(dfc2)
#> # A tibble: 268 × 3
#>    i_track meta  msg             
#>      <dbl> <lgl> <list>          
#>  1       0 FALSE <named list [5]>
#>  2       0 FALSE <named list [5]>
#>  3       0 FALSE <named list [5]>
#>  4       0 TRUE  <named list [4]>
#>  5       0 TRUE  <named list [4]>
#>  6       0 TRUE  <named list [7]>
#>  7       0 FALSE <named list [5]>
#>  8       0 FALSE <named list [5]>
#>  9       0 FALSE <named list [5]>
#> 10       0 FALSE <named list [5]>
#> # ℹ 258 more rows
…
