Package Workflow and Functions • pyramidi
…
Except the name column this seems to be the same as

dfc %>% unnest_wider(msg)
#> # A tibble: 268 × 13
#>    i_track meta  type      name     time  note velocity channel  tempo numerator
#>      <dbl> <lgl> <chr>     <chr>   <int> <int>    <int>   <int>  <int>     <int>
#>  1       0 TRUE  track_na… drum-t…     0    NA       NA      NA     NA        NA
#>  2       0 FALSE note_on   <NA>        0    43       72       9     NA        NA
#>  3       0 FALSE note_on   <NA>        0    39       64       9     NA        NA
#>  4       0 FALSE note_on   <NA>        0    36      101       9     NA        NA
#>  5       0 TRUE  set_tempo <NA>        0    NA       NA      NA 666666        NA
#>  6       0 TRUE  time_sig… <NA>        0    NA       NA      NA     NA         4
#>  7       0 FALSE note_off  <NA>      240    43       72       9     NA        NA
#>  8       0 FALSE note_off  <NA>        0    39       64       9     NA        NA
#>  9       0 FALSE note_off  <NA>        0    36      101       9     NA        NA
#> 10       0 FALSE note_on   <NA>      240    42      101       9     NA        NA
#> # … with 258 more rows, and 3 more variables: denominator <int>,
#> #   clocks_per_click <int>, notated_32nd_notes_per_beat <int>

Translate midi time information

In the midi format, time is treated as relative increments between events (measured in ticks). In order to derive the total time passed, you can use the function tab_measures():

dfm <- tab_measures(df, ticks_per_beat) %>%
  # create a variable `track` with the track name (in order to have it in the plot below)
  mutate(track = ifelse(purrr::map_chr(name, typeof) != "character", 
                        list(NA_character_), 
                        name)) %>%
  unnest(cols = track) %>% 
  fill(track)

dfm
#> # A tibble: 268 × 19
#>    i_track meta  type       name    time  note velocity channel  tempo numerator
#>      <dbl> <lgl> <chr>      <list> <dbl> <dbl>    <dbl>   <dbl>  <dbl>     <dbl>
#>  1       0 TRUE  track_name <chr …     0   NaN      NaN     NaN    NaN       NaN
#>  2       0 FALSE note_on    <dbl …     0    43       72       9    NaN       NaN
#>  3       0 FALSE note_on    <dbl …     0    39       64       9    NaN       NaN
#>  4       0 FALSE note_on    <dbl …     0    36      101       9    NaN       NaN
#>  5       0 TRUE  set_tempo  <dbl …     0   NaN      NaN     NaN 666666       NaN
#>  6       0 TRUE  time_sign… <dbl …     0   NaN      NaN     NaN    NaN         4
#>  7       0 FALSE note_off   <dbl …   240    43       72       9    NaN       NaN
#>  8       0 FALSE note_off   <dbl …     0    39       64       9    NaN       NaN
#>  9       0 FALSE note_off   <dbl …     0    36      101       9    NaN       NaN
#> 10       0 FALSE note_on    <dbl …   240    42      101       9    NaN       NaN
#> # … with 258 more rows, and 9 more variables: denominator <dbl>,
#> #   clocks_per_click <dbl>, notated_32nd_notes_per_beat <dbl>, ticks <dbl>,
#> #   t <dbl>, m <dbl>, b <dbl>, i_note <int>, track <chr>
…
df_notes %>% as_tibble()
#> # A tibble: 260 × 13
#>    i_track meta  type      time  note velocity channel ticks     t     m     b
#>      <dbl> <lgl> <chr>    <dbl> <dbl>    <dbl>   <dbl> <dbl> <dbl> <dbl> <dbl>
#>  1       0 FALSE note_on      0    43       72       9     0 0      0        0
#>  2       0 FALSE note_on      0    39       64       9     0 0      0        0
#>  3       0 FALSE note_on      0    36      101       9     0 0      0        0
#>  4       0 FALSE note_off   240    43       72       9   240 0.167  0.25     1
#>  5       0 FALSE note_off     0    39       64       9   240 0.167  0.25     1
#>  6       0 FALSE note_off     0    36      101       9   240 0.167  0.25     1
#>  7       0 FALSE note_on    240    42      101       9   480 0.333  0.5      2
#>  8       0 FALSE note_on      0    38      101       9   480 0.333  0.5      2
#>  9       0 FALSE note_on    240    43       64       9   720 0.500  0.75     3
#> 10       0 FALSE note_off     0    42      101       9   720 0.500  0.75     3
#> # … with 250 more rows, and 2 more variables: i_note <int>, track <chr>
…
Each note in the midi file is characterized by a note_on and a note_off event. In order to generate a piano roll plot with ggplot2, we need to tidyr::pivot_wider() those events. This can be done with the function widen_events():

df_not_notes <- 
  df_notes %>% 
  dplyr::filter(!stringr::str_detect(.data$type, "^note_o[nf]f?$")) 

df_notes_wide <-
  df_notes %>% 
  dplyr::filter(stringr::str_detect(.data$type, "^note_o[nf]f?$")) %>%
  # tab_measures(df_meta, df_notes, ticks_per_beat) %>%
  widen_events() %>%
  left_join(pyramidi::midi_defs)
#> Joining, by = "note"
df_notes_wide
#> # A tibble: 130 × 19
#>    i_track meta   note channel i_note track        time_note_on time_note_off
#>      <dbl> <lgl> <dbl>   <dbl>  <int> <chr>               <dbl>         <dbl>
#>  1       0 FALSE    43       9      1 drum-t1-1-t1            0           240
#>  2       0 FALSE    39       9      1 drum-t1-1-t1            0             0
#>  3       0 FALSE    36       9      1 drum-t1-1-t1            0             0
#>  4       0 FALSE    42       9      1 drum-t1-1-t1          240             0
#>  5       0 FALSE    38       9      1 drum-t1-1-t1            0             0
#>  6       0 FALSE    43       9      2 drum-t1-1-t1          240           240
#>  7       0 FALSE    36       9      2 drum-t1-1-t1            0           240
#>  8       0 FALSE    43       9      3 drum-t1-1-t1          240           240
#>  9       0 FALSE    42       9      2 drum-t1-1-t1            0             0
#> 10       0 FALSE    43       9      4 drum-t1-1-t1          240           240
#> # … with 120 more rows, and 11 more variables: velocity_note_on <dbl>,
#> #   velocity_note_off <dbl>, ticks_note_on <dbl>, ticks_note_off <dbl>,
#> #   t_note_on <dbl>, t_note_off <dbl>, m_note_on <dbl>, m_note_off <dbl>,
#> #   b_note_on <dbl>, b_note_off <dbl>, note_name <fct>
…
Let’s compare the modified value to the original one:

df_notes_wide %>% 
  select(b_note_on, velocity_note_on) %>% 
  bind_cols(
    new = df_notes_wide_mod$velocity_note_on
  )
#> # A tibble: 130 × 3
#>    b_note_on velocity_note_on   new
#>        <dbl>            <dbl> <dbl>
#>  1         0               72 127  
#>  2         0               64 127  
#>  3         0              101 127  
#>  4         2              101  50.5
#>  5         2              101  50.5
#>  6         3               64  32  
#>  7         4              101 127  
#>  8         6               60  30  
#>  9         6              101  50.5
#> 10         8               60 127  
#> # … with 120 more rows
…
We can transform the wide midi data back to the long format:

df_notes_long <- pivot_long_notes(df_notes_wide)

Join non note events

We can now add the non note events:

df_midi_out <- merge_long_events(df_meta, df_notes_long, df_not_notes)
#> Joining, by = c("i_track", "i_note", "type", "time", "ticks", "t", "m", "b", "meta")
#> Joining, by = c("i_track", "channel", "note", "i_note", "type", "time", "velocity", "ticks", "t", "m", "b", "meta", "track")

df_midi_out
#> # A tibble: 268 × 14
#>    i_track channel  note type        time velocity meta  name    tempo numerator
#>      <dbl>   <dbl> <dbl> <chr>      <dbl>    <dbl> <lgl> <list>  <dbl>     <dbl>
#>  1       0       9    43 note_on        0       72 FALSE <NULL>     NA        NA
#>  2       0       9    39 note_on        0       64 FALSE <NULL>     NA        NA
#>  3       0       9    36 note_on        0      101 FALSE <NULL>     NA        NA
#>  4       0      NA    NA track_name     0       NA TRUE  <chr …    NaN       NaN
#>  5       0      NA    NA set_tempo      0       NA TRUE  <dbl … 666666       NaN
#>  6       0      NA    NA time_sign…     0       NA TRUE  <dbl …    NaN         4
#>  7       0       9    43 note_off     240       72 FALSE <NULL>     NA        NA
#>  8       0       9    39 note_off       0       64 FALSE <NULL>     NA        NA
#>  9       0       9    36 note_off       0      101 FALSE <NULL>     NA        NA
#> 10       0       9    42 note_on      240      101 FALSE <NULL>     NA        NA
#> # … with 258 more rows, and 4 more variables: denominator <dbl>,
#> #   clocks_per_click <dbl>, notated_32nd_notes_per_beat <dbl>, track <chr>
The time value in midi format is given by the number of ticks passed between events.

Write midi dataframe back to a midi file

Now we can transform the data back to a dataframe of the same format as the one we got with miditapyr$midi_to_df():

dfc2 <-
  df_midi_out %>%
  # When reticulate converts R dataframes to pandas, there are complications
  # with character columns containing missing values.
  # repair_reticulate_conversion = TRUE, repairs that in the miditapyr python
  # code:
  miditapyr$compact_df(repair_reticulate_conversion = TRUE)
as_tibble(dfc2)
#> # A tibble: 268 × 3
#>    i_track meta  msg             
#>      <dbl> <lgl> <list>          
#>  1       0 FALSE <named list [6]>
#>  2       0 FALSE <named list [6]>
#>  3       0 FALSE <named list [6]>
#>  4       0 TRUE  <named list [4]>
#>  5       0 TRUE  <named list [4]>
#>  6       0 TRUE  <named list [7]>
#>  7       0 FALSE <named list [6]>
#>  8       0 FALSE <named list [6]>
#>  9       0 FALSE <named list [6]>
#> 10       0 FALSE <named list [6]>
#> # … with 258 more rows
…
