Basic midi file manipulations with midi_framer objects • pyramidi
…
The first object mf is the midi_frame object from miditapyr.MidiFrame(). After the mido midi file object with the raw data there are the 3 dataframes:

list(
    mfr$mf$midi_frame_raw,
    mfr$mf$midi_frame_tidy$midi_frame_tidy,
    mfr$mf$midi_frame_compact$midi_frame_compact
  ) %>% 
  # for prettier printing:
  map(as_tibble)
#> [[1]]
#> # A tibble: 268 × 3
#>    i_track meta  msg             
#>      <dbl> <lgl> <list>          
#>  1       0 TRUE  <named list [3]>
#>  2       0 FALSE <named list [5]>
#>  3       0 FALSE <named list [5]>
#>  4       0 FALSE <named list [5]>
#>  5       0 TRUE  <named list [3]>
#>  6       0 TRUE  <named list [6]>
#>  7       0 FALSE <named list [5]>
#>  8       0 FALSE <named list [5]>
#>  9       0 FALSE <named list [5]>
#> 10       0 FALSE <named list [5]>
#> # … with 258 more rows
#> 
#> [[2]]
#> # A tibble: 268 × 13
#>    i_track meta  type       name    time  note velocity channel  tempo numerator
#>      <dbl> <lgl> <chr>      <list> <dbl> <dbl>    <dbl>   <dbl>  <dbl>     <dbl>
#>  1       0 TRUE  track_name <chr …     0   NaN      NaN     NaN    NaN       NaN
#>  2       0 FALSE note_on    <dbl …     0    43       72       9    NaN       NaN
#>  3       0 FALSE note_on    <dbl …     0    39       64       9    NaN       NaN
#>  4       0 FALSE note_on    <dbl …     0    36      101       9    NaN       NaN
#>  5       0 TRUE  set_tempo  <dbl …     0   NaN      NaN     NaN 666666       NaN
#>  6       0 TRUE  time_sign… <dbl …     0   NaN      NaN     NaN    NaN         4
#>  7       0 FALSE note_off   <dbl …   240    43       72       9    NaN       NaN
#>  8       0 FALSE note_off   <dbl …     0    39       64       9    NaN       NaN
#>  9       0 FALSE note_off   <dbl …     0    36      101       9    NaN       NaN
#> 10       0 FALSE note_on    <dbl …   240    42      101       9    NaN       NaN
#> # … with 258 more rows, and 3 more variables: denominator <dbl>,
#> #   clocks_per_click <dbl>, notated_32nd_notes_per_beat <dbl>
#> 
#> [[3]]
#> # A tibble: 268 × 3
#>    i_track meta  msg             
#>      <dbl> <lgl> <list>          
#>  1       0 TRUE  <named list [3]>
#>  2       0 FALSE <named list [5]>
#>  3       0 FALSE <named list [5]>
#>  4       0 FALSE <named list [5]>
#>  5       0 TRUE  <named list [3]>
#>  6       0 TRUE  <named list [6]>
#>  7       0 FALSE <named list [5]>
#>  8       0 FALSE <named list [5]>
#>  9       0 FALSE <named list [5]>
#> 10       0 FALSE <named list [5]>
#> # … with 258 more rows
…
Let’s look at a small example. We’ll define a function to replace every note with a random midi note between 60 & 71::

mod <- function(dfn, seed) {
  n_notes <- sum(!is.na(dfn$note))
  dfn %>% mutate(note = ifelse(
    !is.na(note),
    sample(60:71, n_notes, TRUE),
    note
  ))
}

We could modify the notes in wide format like this:

mod(mfr$df_notes_wide)
#> # A tibble: 130 × 17
#>    i_track meta   note channel i_note time_note_on time_note_off
#>      <dbl> <lgl> <int>   <dbl>  <int>        <dbl>         <dbl>
#>  1       0 FALSE    68       9      1            0           240
#>  2       0 FALSE    65       9      1            0             0
#>  3       0 FALSE    65       9      1            0             0
#>  4       0 FALSE    69       9      1          240             0
#>  5       0 FALSE    70       9      1            0             0
#>  6       0 FALSE    70       9      2          240           240
#>  7       0 FALSE    66       9      2            0           240
#>  8       0 FALSE    64       9      3          240           240
#>  9       0 FALSE    65       9      2            0             0
#> 10       0 FALSE    61       9      4          240           240
#> # … with 120 more rows, and 10 more variables: velocity_note_on <dbl>,
#> #   velocity_note_off <dbl>, ticks_note_on <dbl>, ticks_note_off <dbl>,
#> #   t_note_on <dbl>, t_note_off <dbl>, m_note_on <dbl>, m_note_off <dbl>,
#> #   b_note_on <dbl>, b_note_off <dbl>
…
