Using mido directly from R • pyramidi
…
[[10]]$velocity
[1] 101

[[10]]$channel
[1] 9

We can put this list of message lists in a dataframe and write the
values of each key in their own column:

track1Rlist %>% 
  tibble(temp = .) %>% 
  unnest_wider(temp)
#> # A tibble: 160 × 11
#>    type          name   time  note velocity channel  tempo numerator denominator
#>    <chr>         <chr> <int> <int>    <int>   <int>  <int>     <int>       <int>
#>  1 track_name    drum…     0    NA       NA      NA     NA        NA          NA
#>  2 note_on       NA        0    43       72       9     NA        NA          NA
#>  3 note_on       NA        0    39       64       9     NA        NA          NA
#>  4 note_on       NA        0    36      101       9     NA        NA          NA
#>  5 set_tempo     NA        0    NA       NA      NA 666666        NA          NA
#>  6 time_signatu… NA        0    NA       NA      NA     NA         4           4
#>  7 note_off      NA      240    43       72       9     NA        NA          NA
#>  8 note_off      NA        0    39       64       9     NA        NA          NA
#>  9 note_off      NA        0    36      101       9     NA        NA          NA
#> 10 note_on       NA      240    42      101       9     NA        NA          NA
#> # ℹ 150 more rows
#> # ℹ 2 more variables: clocks_per_click <int>, notated_32nd_notes_per_beat <int>

Compare with pyramidi

For comparison, we plot the results of unnest_midi()

mfr <- MidiFramer$new(midi_file_string)
mt$unnest_midi(dfc = mfr$mf$midi_frame_raw) %>% 
  as_tibble()
#> # A tibble: 268 × 13
#>    i_track meta  type        name   time  note velocity channel  tempo numerator
#>      <dbl> <lgl> <chr>       <chr> <dbl> <dbl>    <dbl>   <dbl>  <dbl>     <dbl>
#>  1       0 TRUE  track_name  drum…     0   NaN      NaN     NaN    NaN       NaN
#>  2       0 FALSE note_on     NA        0    43       72       9    NaN       NaN
#>  3       0 FALSE note_on     NA        0    39       64       9    NaN       NaN
#>  4       0 FALSE note_on     NA        0    36      101       9    NaN       NaN
#>  5       0 TRUE  set_tempo   NA        0   NaN      NaN     NaN 666666       NaN
#>  6       0 TRUE  time_signa… NA        0   NaN      NaN     NaN    NaN         4
#>  7       0 FALSE note_off    NA      240    43       72       9    NaN       NaN
#>  8       0 FALSE note_off    NA        0    39       64       9    NaN       NaN
#>  9       0 FALSE note_off    NA        0    36      101       9    NaN       NaN
#> 10       0 FALSE note_on     NA      240    42      101       9    NaN       NaN
#> # ℹ 258 more rows
#> # ℹ 3 more variables: denominator <dbl>, clocks_per_click <dbl>,
#> #   notated_32nd_notes_per_beat <dbl>
…
